{
  "US": "united-states",
  "ARGENTINA": "argentina",
  "NEW_ZEALAND": "new-zealand",
  "SLOVAKIA": "slovakia",
  "CZECH_REPUBLIC": "czech-republic",
  "POLAND": "poland",
  "JAPAN": "japan",
  "MEXICO": "mexico",
  "IRELAND": "ireland",
  "SPAIN": "spain",
  "CANADA": "canada",
  "BRAZIL": "brazil",
  "UKRAINE": "ukraine",
  "UNITED_KINGDOM": "united-kingdom",
  "AUSTRIA": "austria",
  "FRANCE": "france",
  "ITALY": "italy",
  "CHINA": "china",
  "GERMANY": "germany",
  "SOUTH_AFRICA": "south-africa"
}
